{
  "appId": "com.nojsja.electronux",
  "copyright": "nojsja",
  "productName": "electronux",
  "asar": false,
  "directories": {
    "buildResources": "resources/",
    "output": "build/"
  },
  "files": ["package.json", "index.js", "dist/", "app/", "node_modules/", "resources/*.*"],
  "linux": {
    "icon": "build/",
    "category": "System",
    "description": "A linux system tool powered by electron/react/mobx",
    "synopsis": "electronux",
    "target": ["zip", "deb"],
    "publish": {
      "provider": "github",
      "repo": "https://github.com/NoJsJa/electronux.git",
      "owner": "NoJsJa",
      "vPrefixedTagName": true,
      "host": "github.com",
      "protocol": "https",
      "token": "",
      "private": true,
      "releaseType": "release",
      "publishAutoUpdate": true
    }
  }
}
